<?xml version="1.0" encoding="iso-8859-1"?>
<!-- Generator: Adobe Illustrator 17.1.0, SVG Export Plug-In . SVG Version: 6.00 Build 0)  -->
<!DOCTYPE svg PUBLIC "-//W3C//DTD SVG 1.1//EN" "http://www.w3.org/Graphics/SVG/1.1/DTD/svg11.dtd">
<svg version="1.1" id="Capa_1" xmlns="http://www.w3.org/2000/svg" xmlns:xlink="http://www.w3.org/1999/xlink" x="0px" y="0px"
	 viewBox="0 0 348.541 348.541" style="enable-background:new 0 0 348.541 348.541;" xml:space="preserve">
<g>
	<g>
		<path d="M341.041,221.655H7.5c-4.142,0-7.5-3.358-7.5-7.5s3.358-7.5,7.5-7.5h333.541c4.143,0,7.5,3.358,7.5,7.5
			S345.184,221.655,341.041,221.655z"/>
	</g>
	<g>
		<path d="M341.041,267.86H7.5c-4.142,0-7.5-3.358-7.5-7.5s3.358-7.5,7.5-7.5h333.541c4.143,0,7.5,3.358,7.5,7.5
			S345.184,267.86,341.041,267.86z"/>
	</g>
	<g>
		<path d="M341.041,314.065H7.5c-4.142,0-7.5-3.358-7.5-7.5s3.358-7.5,7.5-7.5h333.541c4.143,0,7.5,3.358,7.5,7.5
			S345.184,314.065,341.041,314.065z"/>
	</g>
	<g>
		<g>
			<path d="M62.33,190.831c-3.626,0-6.815-2.636-7.399-6.331c-1.057-6.694-1.593-13.551-1.593-20.38
				c0-34.395,13.329-66.793,37.532-91.228c24.182-24.413,56.417-38.056,90.767-38.416c0.025,0,0.052,0,0.078,0
				c2.689,0,5.175,1.44,6.512,3.778c1.349,2.36,1.315,5.267-0.09,7.595c-10.734,17.799-16.409,38.246-16.409,59.13
				c0,26.858,9.475,52.975,26.679,73.538c2.658,3.177,2.237,7.907-0.939,10.565c-3.176,2.658-7.906,2.237-10.564-0.94
				c-19.458-23.257-30.175-52.792-30.175-83.163c0-18.959,4.139-37.604,12.056-54.64c-25.439,3.132-48.955,14.633-67.256,33.109
				c-21.402,21.606-33.188,50.256-33.188,80.671c0,6.048,0.474,12.117,1.41,18.04c0.646,4.091-2.147,7.932-6.238,8.578
				C63.113,190.8,62.718,190.831,62.33,190.831z"/>
		</g>
	</g>
</g>
<g>
</g>
<g>
</g>
<g>
</g>
<g>
</g>
<g>
</g>
<g>
</g>
<g>
</g>
<g>
</g>
<g>
</g>
<g>
</g>
<g>
</g>
<g>
</g>
<g>
</g>
<g>
</g>
<g>
</g>
</svg>
